{
    "page": 1,
    "per_page": 15,
    "photos": [
        {
            "id": 291528,
            "width": 2564,
            "height": 2160,
            "url": "https://www.pexels.com/photo/sliced-cake-on-plate-291528/",
            "photographer": "Abhinav Goswami",
            "photographer_url": "https://www.pexels.com/@abhinavcoca",
            "photographer_id": 89244,
            "avg_color": "#7B7063",
            "src": {
                "original": "https://images.pexels.com/photos/291528/pexels-photo-291528.jpeg",
                "large2x": "https://images.pexels.com/photos/291528/pexels-photo-291528.jpeg?auto=compress&cs=tinysrgb&dpr=2&h=650&w=940",
                "large": "https://images.pexels.com/photos/291528/pexels-photo-291528.jpeg?auto=compress&cs=tinysrgb&h=650&w=940",
                "medium": "https://images.pexels.com/photos/291528/pexels-photo-291528.jpeg?auto=compress&cs=tinysrgb&h=350",
                "small": "https://images.pexels.com/photos/291528/pexels-photo-291528.jpeg?auto=compress&cs=tinysrgb&h=130",
                "portrait": "https://images.pexels.com/photos/291528/pexels-photo-291528.jpeg?auto=compress&cs=tinysrgb&fit=crop&h=1200&w=800",
                "landscape": "https://images.pexels.com/photos/291528/pexels-photo-291528.jpeg?auto=compress&cs=tinysrgb&fit=crop&h=627&w=1200",
                "tiny": "https://images.pexels.com/photos/291528/pexels-photo-291528.jpeg?auto=compress&cs=tinysrgb&dpr=1&fit=crop&h=200&w=280"
            },
            "liked": false,
            "alt": "Sliced Cake on Plate"
        },
        {
            "id": 1702373,
            "width": 3337,
            "height": 2437,
            "url": "https://www.pexels.com/photo/white-icing-cover-cake-1702373/",
            "photographer": "Brent Keane",
            "photographer_url": "https://www.pexels.com/@brent-keane-181485",
            "photographer_id": 181485,
            "avg_color": "#B5B4AB",
            "src": {
                "original": "https://images.pexels.com/photos/1702373/pexels-photo-1702373.jpeg",
                "large2x": "https://images.pexels.com/photos/1702373/pexels-photo-1702373.jpeg?auto=compress&cs=tinysrgb&dpr=2&h=650&w=940",
                "large": "https://images.pexels.com/photos/1702373/pexels-photo-1702373.jpeg?auto=compress&cs=tinysrgb&h=650&w=940",
                "medium": "https://images.pexels.com/photos/1702373/pexels-photo-1702373.jpeg?auto=compress&cs=tinysrgb&h=350",
                "small": "https://images.pexels.com/photos/1702373/pexels-photo-1702373.jpeg?auto=compress&cs=tinysrgb&h=130",
                "portrait": "https://images.pexels.com/photos/1702373/pexels-photo-1702373.jpeg?auto=compress&cs=tinysrgb&fit=crop&h=1200&w=800",
                "landscape": "https://images.pexels.com/photos/1702373/pexels-photo-1702373.jpeg?auto=compress&cs=tinysrgb&fit=crop&h=627&w=1200",
                "tiny": "https://images.pexels.com/photos/1702373/pexels-photo-1702373.jpeg?auto=compress&cs=tinysrgb&dpr=1&fit=crop&h=200&w=280"
            },
            "liked": false,
            "alt": "White Icing Cover Cake"
        },
        {
            "id": 1055272,
            "width": 4000,
            "height": 4000,
            "url": "https://www.pexels.com/photo/photograph-of-chocolate-cupcake-with-red-strawberry-toppings-1055272/",
            "photographer": "Vojtech Okenka",
            "photographer_url": "https://www.pexels.com/@vojtech-okenka-127162",
            "photographer_id": 127162,
            "avg_color": "#E3E1E2",
            "src": {
                "original": "https://images.pexels.com/photos/1055272/pexels-photo-1055272.jpeg",
                "large2x": "https://images.pexels.com/photos/1055272/pexels-photo-1055272.jpeg?auto=compress&cs=tinysrgb&dpr=2&h=650&w=940",
                "large": "https://images.pexels.com/photos/1055272/pexels-photo-1055272.jpeg?auto=compress&cs=tinysrgb&h=650&w=940",
                "medium": "https://images.pexels.com/photos/1055272/pexels-photo-1055272.jpeg?auto=compress&cs=tinysrgb&h=350",
                "small": "https://images.pexels.com/photos/1055272/pexels-photo-1055272.jpeg?auto=compress&cs=tinysrgb&h=130",
                "portrait": "https://images.pexels.com/photos/1055272/pexels-photo-1055272.jpeg?auto=compress&cs=tinysrgb&fit=crop&h=1200&w=800",
                "landscape": "https://images.pexels.com/photos/1055272/pexels-photo-1055272.jpeg?auto=compress&cs=tinysrgb&fit=crop&h=627&w=1200",
                "tiny": "https://images.pexels.com/photos/1055272/pexels-photo-1055272.jpeg?auto=compress&cs=tinysrgb&dpr=1&fit=crop&h=200&w=280"
            },
            "liked": false,
            "alt": "Photograph of Chocolate Cupcake With Red Strawberry Toppings"
        },
        {
            "id": 1721934,
            "width": 2336,
            "height": 3500,
            "url": "https://www.pexels.com/photo/shallow-focus-of-white-icing-covered-cake-on-white-ceramic-plate-1721934/",
            "photographer": "Dmitry Zvolskiy",
            "photographer_url": "https://www.pexels.com/@zvolskiy",
            "photographer_id": 708150,
            "avg_color": "#B28873",
            "src": {
                "original": "https://images.pexels.com/photos/1721934/pexels-photo-1721934.jpeg",
                "large2x": "https://images.pexels.com/photos/1721934/pexels-photo-1721934.jpeg?auto=compress&cs=tinysrgb&dpr=2&h=650&w=940",
                "large": "https://images.pexels.com/photos/1721934/pexels-photo-1721934.jpeg?auto=compress&cs=tinysrgb&h=650&w=940",
                "medium": "https://images.pexels.com/photos/1721934/pexels-photo-1721934.jpeg?auto=compress&cs=tinysrgb&h=350",
                "small": "https://images.pexels.com/photos/1721934/pexels-photo-1721934.jpeg?auto=compress&cs=tinysrgb&h=130",
                "portrait": "https://images.pexels.com/photos/1721934/pexels-photo-1721934.jpeg?auto=compress&cs=tinysrgb&fit=crop&h=1200&w=800",
                "landscape": "https://images.pexels.com/photos/1721934/pexels-photo-1721934.jpeg?auto=compress&cs=tinysrgb&fit=crop&h=627&w=1200",
                "tiny": "https://images.pexels.com/photos/1721934/pexels-photo-1721934.jpeg?auto=compress&cs=tinysrgb&dpr=1&fit=crop&h=200&w=280"
            },
            "liked": false,
            "alt": "Shallow Focus of White Icing-covered Cake on White Ceramic Plate"
        },
        {
            "id": 913136,
            "width": 3184,
            "height": 4246,
            "url": "https://www.pexels.com/photo/chocolate-cupcake-with-white-and-red-toppings-913136/",
            "photographer": "Jess Bailey Designs",
            "photographer_url": "https://www.pexels.com/@jessbaileydesign",
            "photographer_id": 229739,
            "avg_color": "#AD9690",
            "src": {
                "original": "https://images.pexels.com/photos/913136/pexels-photo-913136.jpeg",
                "large2x": "https://images.pexels.com/photos/913136/pexels-photo-913136.jpeg?auto=compress&cs=tinysrgb&dpr=2&h=650&w=940",
                "large": "https://images.pexels.com/photos/913136/pexels-photo-913136.jpeg?auto=compress&cs=tinysrgb&h=650&w=940",
                "medium": "https://images.pexels.com/photos/913136/pexels-photo-913136.jpeg?auto=compress&cs=tinysrgb&h=350",
                "small": "https://images.pexels.com/photos/913136/pexels-photo-913136.jpeg?auto=compress&cs=tinysrgb&h=130",
                "portrait": "https://images.pexels.com/photos/913136/pexels-photo-913136.jpeg?auto=compress&cs=tinysrgb&fit=crop&h=1200&w=800",
                "landscape": "https://images.pexels.com/photos/913136/pexels-photo-913136.jpeg?auto=compress&cs=tinysrgb&fit=crop&h=627&w=1200",
                "tiny": "https://images.pexels.com/photos/913136/pexels-photo-913136.jpeg?auto=compress&cs=tinysrgb&dpr=1&fit=crop&h=200&w=280"
            },
            "liked": false,
            "alt": "Chocolate Cupcake With White and Red Toppings"
        },
        {
            "id": 140831,
            "width": 5760,
            "height": 3840,
            "url": "https://www.pexels.com/photo/white-round-cake-topped-with-yellow-slice-fruit-140831/",
            "photographer": "Jasmine lew",
            "photographer_url": "https://www.pexels.com/@changerstudio",
            "photographer_id": 35615,
            "avg_color": "#B8B5A7",
            "src": {
                "original": "https://images.pexels.com/photos/140831/pexels-photo-140831.jpeg",
                "large2x": "https://images.pexels.com/photos/140831/pexels-photo-140831.jpeg?auto=compress&cs=tinysrgb&dpr=2&h=650&w=940",
                "large": "https://images.pexels.com/photos/140831/pexels-photo-140831.jpeg?auto=compress&cs=tinysrgb&h=650&w=940",
                "medium": "https://images.pexels.com/photos/140831/pexels-photo-140831.jpeg?auto=compress&cs=tinysrgb&h=350",
                "small": "https://images.pexels.com/photos/140831/pexels-photo-140831.jpeg?auto=compress&cs=tinysrgb&h=130",
                "portrait": "https://images.pexels.com/photos/140831/pexels-photo-140831.jpeg?auto=compress&cs=tinysrgb&fit=crop&h=1200&w=800",
                "landscape": "https://images.pexels.com/photos/140831/pexels-photo-140831.jpeg?auto=compress&cs=tinysrgb&fit=crop&h=627&w=1200",
                "tiny": "https://images.pexels.com/photos/140831/pexels-photo-140831.jpeg?auto=compress&cs=tinysrgb&dpr=1&fit=crop&h=200&w=280"
            },
            "liked": false,
            "alt": "White Round Cake Topped With Yellow Slice Fruit"
        },
        {
            "id": 1854652,
            "width": 3456,
            "height": 5184,
            "url": "https://www.pexels.com/photo/slice-cake-1854652/",
            "photographer": "Elli",
            "photographer_url": "https://www.pexels.com/@elli-559179",
            "photographer_id": 559179,
            "avg_color": "#9A9B7D",
            "src": {
                "original": "https://images.pexels.com/photos/1854652/pexels-photo-1854652.jpeg",
                "large2x": "https://images.pexels.com/photos/1854652/pexels-photo-1854652.jpeg?auto=compress&cs=tinysrgb&dpr=2&h=650&w=940",
                "large": "https://images.pexels.com/photos/1854652/pexels-photo-1854652.jpeg?auto=compress&cs=tinysrgb&h=650&w=940",
                "medium": "https://images.pexels.com/photos/1854652/pexels-photo-1854652.jpeg?auto=compress&cs=tinysrgb&h=350",
                "small": "https://images.pexels.com/photos/1854652/pexels-photo-1854652.jpeg?auto=compress&cs=tinysrgb&h=130",
                "portrait": "https://images.pexels.com/photos/1854652/pexels-photo-1854652.jpeg?auto=compress&cs=tinysrgb&fit=crop&h=1200&w=800",
                "landscape": "https://images.pexels.com/photos/1854652/pexels-photo-1854652.jpeg?auto=compress&cs=tinysrgb&fit=crop&h=627&w=1200",
                "tiny": "https://images.pexels.com/photos/1854652/pexels-photo-1854652.jpeg?auto=compress&cs=tinysrgb&dpr=1&fit=crop&h=200&w=280"
            },
            "liked": false,
            "alt": "Slice Cake "
        },
        {
            "id": 853004,
            "width": 3456,
            "height": 4608,
            "url": "https://www.pexels.com/photo/three-baked-muffin-with-strawberry-filling-on-top-853004/",
            "photographer": "Jess Bailey Designs",
            "photographer_url": "https://www.pexels.com/@jessbaileydesign",
            "photographer_id": 229739,
            "avg_color": "#C79C8D",
            "src": {
                "original": "https://images.pexels.com/photos/853004/pexels-photo-853004.jpeg",
                "large2x": "https://images.pexels.com/photos/853004/pexels-photo-853004.jpeg?auto=compress&cs=tinysrgb&dpr=2&h=650&w=940",
                "large": "https://images.pexels.com/photos/853004/pexels-photo-853004.jpeg?auto=compress&cs=tinysrgb&h=650&w=940",
                "medium": "https://images.pexels.com/photos/853004/pexels-photo-853004.jpeg?auto=compress&cs=tinysrgb&h=350",
                "small": "https://images.pexels.com/photos/853004/pexels-photo-853004.jpeg?auto=compress&cs=tinysrgb&h=130",
                "portrait": "https://images.pexels.com/photos/853004/pexels-photo-853004.jpeg?auto=compress&cs=tinysrgb&fit=crop&h=1200&w=800",
                "landscape": "https://images.pexels.com/photos/853004/pexels-photo-853004.jpeg?auto=compress&cs=tinysrgb&fit=crop&h=627&w=1200",
                "tiny": "https://images.pexels.com/photos/853004/pexels-photo-853004.jpeg?auto=compress&cs=tinysrgb&dpr=1&fit=crop&h=200&w=280"
            },
            "liked": false,
            "alt": "Three Baked Muffin With Strawberry Filling on Top"
        },
        {
            "id": 1038711,
            "width": 3648,
            "height": 5472,
            "url": "https://www.pexels.com/photo/4-tier-cake-on-cake-stand-1038711/",
            "photographer": "Jeremy Wong",
            "photographer_url": "https://www.pexels.com/@jeremy-wong-382920",
            "photographer_id": 382920,
            "avg_color": "#B3AFA6",
            "src": {
                "original": "https://images.pexels.com/photos/1038711/pexels-photo-1038711.jpeg",
                "large2x": "https://images.pexels.com/photos/1038711/pexels-photo-1038711.jpeg?auto=compress&cs=tinysrgb&dpr=2&h=650&w=940",
                "large": "https://images.pexels.com/photos/1038711/pexels-photo-1038711.jpeg?auto=compress&cs=tinysrgb&h=650&w=940",
                "medium": "https://images.pexels.com/photos/1038711/pexels-photo-1038711.jpeg?auto=compress&cs=tinysrgb&h=350",
                "small": "https://images.pexels.com/photos/1038711/pexels-photo-1038711.jpeg?auto=compress&cs=tinysrgb&h=130",
                "portrait": "https://images.pexels.com/photos/1038711/pexels-photo-1038711.jpeg?auto=compress&cs=tinysrgb&fit=crop&h=1200&w=800",
                "landscape": "https://images.pexels.com/photos/1038711/pexels-photo-1038711.jpeg?auto=compress&cs=tinysrgb&fit=crop&h=627&w=1200",
                "tiny": "https://images.pexels.com/photos/1038711/pexels-photo-1038711.jpeg?auto=compress&cs=tinysrgb&dpr=1&fit=crop&h=200&w=280"
            },
            "liked": false,
            "alt": "4-tier Cake on Cake Stand"
        },
        {
            "id": 2531546,
            "width": 3648,
            "height": 5472,
            "url": "https://www.pexels.com/photo/pink-three-layered-cake-2531546/",
            "photographer": "Rodrigo Souza",
            "photographer_url": "https://www.pexels.com/@rodrigo-souza-1275988",
            "photographer_id": 1275988,
            "avg_color": "#6B6868",
            "src": {
                "original": "https://images.pexels.com/photos/2531546/pexels-photo-2531546.jpeg",
                "large2x": "https://images.pexels.com/photos/2531546/pexels-photo-2531546.jpeg?auto=compress&cs=tinysrgb&dpr=2&h=650&w=940",
                "large": "https://images.pexels.com/photos/2531546/pexels-photo-2531546.jpeg?auto=compress&cs=tinysrgb&h=650&w=940",
                "medium": "https://images.pexels.com/photos/2531546/pexels-photo-2531546.jpeg?auto=compress&cs=tinysrgb&h=350",
                "small": "https://images.pexels.com/photos/2531546/pexels-photo-2531546.jpeg?auto=compress&cs=tinysrgb&h=130",
                "portrait": "https://images.pexels.com/photos/2531546/pexels-photo-2531546.jpeg?auto=compress&cs=tinysrgb&fit=crop&h=1200&w=800",
                "landscape": "https://images.pexels.com/photos/2531546/pexels-photo-2531546.jpeg?auto=compress&cs=tinysrgb&fit=crop&h=627&w=1200",
                "tiny": "https://images.pexels.com/photos/2531546/pexels-photo-2531546.jpeg?auto=compress&cs=tinysrgb&dpr=1&fit=crop&h=200&w=280"
            },
            "liked": false,
            "alt": "Pink Three-layered Cake"
        },
        {
            "id": 1721932,
            "width": 2336,
            "height": 3500,
            "url": "https://www.pexels.com/photo/white-icing-covered-cake-in-bokeh-photography-1721932/",
            "photographer": "Dmitry Zvolskiy",
            "photographer_url": "https://www.pexels.com/@zvolskiy",
            "photographer_id": 708150,
            "avg_color": "#C59E8D",
            "src": {
                "original": "https://images.pexels.com/photos/1721932/pexels-photo-1721932.jpeg",
                "large2x": "https://images.pexels.com/photos/1721932/pexels-photo-1721932.jpeg?auto=compress&cs=tinysrgb&dpr=2&h=650&w=940",
                "large": "https://images.pexels.com/photos/1721932/pexels-photo-1721932.jpeg?auto=compress&cs=tinysrgb&h=650&w=940",
                "medium": "https://images.pexels.com/photos/1721932/pexels-photo-1721932.jpeg?auto=compress&cs=tinysrgb&h=350",
                "small": "https://images.pexels.com/photos/1721932/pexels-photo-1721932.jpeg?auto=compress&cs=tinysrgb&h=130",
                "portrait": "https://images.pexels.com/photos/1721932/pexels-photo-1721932.jpeg?auto=compress&cs=tinysrgb&fit=crop&h=1200&w=800",
                "landscape": "https://images.pexels.com/photos/1721932/pexels-photo-1721932.jpeg?auto=compress&cs=tinysrgb&fit=crop&h=627&w=1200",
                "tiny": "https://images.pexels.com/photos/1721932/pexels-photo-1721932.jpeg?auto=compress&cs=tinysrgb&dpr=1&fit=crop&h=200&w=280"
            },
            "liked": false,
            "alt": "White Icing-covered Cake in Bokeh Photography"
        },
        {
            "id": 1291712,
            "width": 2999,
            "height": 1999,
            "url": "https://www.pexels.com/photo/butter-cookie-cake-toppings-with-fruits-1291712/",
            "photographer": "Matheus Guimarães",
            "photographer_url": "https://www.pexels.com/@ozrenildo",
            "photographer_id": 57062,
            "avg_color": "#BC9681",
            "src": {
                "original": "https://images.pexels.com/photos/1291712/pexels-photo-1291712.jpeg",
                "large2x": "https://images.pexels.com/photos/1291712/pexels-photo-1291712.jpeg?auto=compress&cs=tinysrgb&dpr=2&h=650&w=940",
                "large": "https://images.pexels.com/photos/1291712/pexels-photo-1291712.jpeg?auto=compress&cs=tinysrgb&h=650&w=940",
                "medium": "https://images.pexels.com/photos/1291712/pexels-photo-1291712.jpeg?auto=compress&cs=tinysrgb&h=350",
                "small": "https://images.pexels.com/photos/1291712/pexels-photo-1291712.jpeg?auto=compress&cs=tinysrgb&h=130",
                "portrait": "https://images.pexels.com/photos/1291712/pexels-photo-1291712.jpeg?auto=compress&cs=tinysrgb&fit=crop&h=1200&w=800",
                "landscape": "https://images.pexels.com/photos/1291712/pexels-photo-1291712.jpeg?auto=compress&cs=tinysrgb&fit=crop&h=627&w=1200",
                "tiny": "https://images.pexels.com/photos/1291712/pexels-photo-1291712.jpeg?auto=compress&cs=tinysrgb&dpr=1&fit=crop&h=200&w=280"
            },
            "liked": false,
            "alt": "Butter Cookie Cake Toppings With Fruits"
        },
        {
            "id": 1414234,
            "width": 5184,
            "height": 3456,
            "url": "https://www.pexels.com/photo/sliced-white-and-pink-icing-covered-cake-on-white-plate-with-silver-colored-fork-1414234/",
            "photographer": "ERIC MUFASA",
            "photographer_url": "https://www.pexels.com/@eric-mufasa-578798",
            "photographer_id": 578798,
            "avg_color": "#9FA5BA",
            "src": {
                "original": "https://images.pexels.com/photos/1414234/pexels-photo-1414234.jpeg",
                "large2x": "https://images.pexels.com/photos/1414234/pexels-photo-1414234.jpeg?auto=compress&cs=tinysrgb&dpr=2&h=650&w=940",
                "large": "https://images.pexels.com/photos/1414234/pexels-photo-1414234.jpeg?auto=compress&cs=tinysrgb&h=650&w=940",
                "medium": "https://images.pexels.com/photos/1414234/pexels-photo-1414234.jpeg?auto=compress&cs=tinysrgb&h=350",
                "small": "https://images.pexels.com/photos/1414234/pexels-photo-1414234.jpeg?auto=compress&cs=tinysrgb&h=130",
                "portrait": "https://images.pexels.com/photos/1414234/pexels-photo-1414234.jpeg?auto=compress&cs=tinysrgb&fit=crop&h=1200&w=800",
                "landscape": "https://images.pexels.com/photos/1414234/pexels-photo-1414234.jpeg?auto=compress&cs=tinysrgb&fit=crop&h=627&w=1200",
                "tiny": "https://images.pexels.com/photos/1414234/pexels-photo-1414234.jpeg?auto=compress&cs=tinysrgb&dpr=1&fit=crop&h=200&w=280"
            },
            "liked": false,
            "alt": "Sliced White and Pink Icing Covered Cake on White Plate With Silver-colored Fork"
        },
        {
            "id": 227432,
            "width": 3504,
            "height": 2336,
            "url": "https://www.pexels.com/photo/happiness-is-a-piece-of-cake-close-up-photography-227432/",
            "photographer": "Antonio Quagliata",
            "photographer_url": "https://www.pexels.com/@antonio-quagliata-63388",
            "photographer_id": 63388,
            "avg_color": "#71696A",
            "src": {
                "original": "https://images.pexels.com/photos/227432/pexels-photo-227432.jpeg",
                "large2x": "https://images.pexels.com/photos/227432/pexels-photo-227432.jpeg?auto=compress&cs=tinysrgb&dpr=2&h=650&w=940",
                "large": "https://images.pexels.com/photos/227432/pexels-photo-227432.jpeg?auto=compress&cs=tinysrgb&h=650&w=940",
                "medium": "https://images.pexels.com/photos/227432/pexels-photo-227432.jpeg?auto=compress&cs=tinysrgb&h=350",
                "small": "https://images.pexels.com/photos/227432/pexels-photo-227432.jpeg?auto=compress&cs=tinysrgb&h=130",
                "portrait": "https://images.pexels.com/photos/227432/pexels-photo-227432.jpeg?auto=compress&cs=tinysrgb&fit=crop&h=1200&w=800",
                "landscape": "https://images.pexels.com/photos/227432/pexels-photo-227432.jpeg?auto=compress&cs=tinysrgb&fit=crop&h=627&w=1200",
                "tiny": "https://images.pexels.com/photos/227432/pexels-photo-227432.jpeg?auto=compress&cs=tinysrgb&dpr=1&fit=crop&h=200&w=280"
            },
            "liked": false,
            "alt": "Happiness Is a Piece of Cake Close Up Photography"
        },
        {
            "id": 1889651,
            "width": 3456,
            "height": 5184,
            "url": "https://www.pexels.com/photo/naked-strawberry-cake-in-open-window-1889651/",
            "photographer": "Dalila Dalprat",
            "photographer_url": "https://www.pexels.com/@daliladalprat",
            "photographer_id": 863407,
            "avg_color": "#B2A8A5",
            "src": {
                "original": "https://images.pexels.com/photos/1889651/pexels-photo-1889651.jpeg",
                "large2x": "https://images.pexels.com/photos/1889651/pexels-photo-1889651.jpeg?auto=compress&cs=tinysrgb&dpr=2&h=650&w=940",
                "large": "https://images.pexels.com/photos/1889651/pexels-photo-1889651.jpeg?auto=compress&cs=tinysrgb&h=650&w=940",
                "medium": "https://images.pexels.com/photos/1889651/pexels-photo-1889651.jpeg?auto=compress&cs=tinysrgb&h=350",
                "small": "https://images.pexels.com/photos/1889651/pexels-photo-1889651.jpeg?auto=compress&cs=tinysrgb&h=130",
                "portrait": "https://images.pexels.com/photos/1889651/pexels-photo-1889651.jpeg?auto=compress&cs=tinysrgb&fit=crop&h=1200&w=800",
                "landscape": "https://images.pexels.com/photos/1889651/pexels-photo-1889651.jpeg?auto=compress&cs=tinysrgb&fit=crop&h=627&w=1200",
                "tiny": "https://images.pexels.com/photos/1889651/pexels-photo-1889651.jpeg?auto=compress&cs=tinysrgb&dpr=1&fit=crop&h=200&w=280"
            },
            "liked": false,
            "alt": "Naked Strawberry Cake in Open Window"
        }
    ],
    "total_results": 8000,
    "next_page": "https://api.pexels.com/v1/search/?page=2&per_page=15&query=cake"
}